$ udevadm monitor --subsystem-match=usb --property

------ N64:

UDEV  [1160.555557] add      /devices/platform/soc/3f980000.usb/usb1/1-1/1-1.3 (usb)
ACTION=add
BUSNUM=001
DEVNAME=/dev/bus/usb/001/013
DEVNUM=013
DEVPATH=/devices/platform/soc/3f980000.usb/usb1/1-1/1-1.3
DEVTYPE=usb_device
ID_BUS=usb
ID_MODEL=Generic_USB_Joystick
ID_MODEL_ENC=Generic\x20\x20\x20USB\x20\x20Joystick\x20\x20
ID_MODEL_FROM_DATABASE=PC TWIN SHOCK Gamepad
ID_MODEL_ID=0006
ID_REVISION=0107
ID_SERIAL=DragonRise_Inc._Generic_USB_Joystick
ID_USB_INTERFACES=:030000:
ID_VENDOR=DragonRise_Inc.
ID_VENDOR_ENC=DragonRise\x20Inc.\x20\x20
ID_VENDOR_FROM_DATABASE=DragonRise Inc.
ID_VENDOR_ID=0079
MAJOR=189
MINOR=12
PRODUCT=79/6/107
SEQNUM=1178
SUBSYSTEM=usb
TYPE=0/0/0
USEC_INITIALIZED=60527649

UDEV  [1160.562197] add      /devices/platform/soc/3f980000.usb/usb1/1-1/1-1.3/1-1.3:1.0 (usb)
ACTION=add
DEVPATH=/devices/platform/soc/3f980000.usb/usb1/1-1/1-1.3/1-1.3:1.0
DEVTYPE=usb_interface
ID_MODEL_FROM_DATABASE=PC TWIN SHOCK Gamepad
ID_VENDOR_FROM_DATABASE=DragonRise Inc.
INTERFACE=3/0/0
MODALIAS=usb:v0079p0006d0107dc00dsc00dp00ic03isc00ip00in00
PRODUCT=79/6/107
SEQNUM=1179
SUBSYSTEM=usb
TYPE=0/0/0
USEC_INITIALIZED=529281




--------- snes:

UDEV  [1087.835213] add      /devices/platform/soc/3f980000.usb/usb1/1-1/1-1.2 (usb)
ACTION=add
BUSNUM=001
DEVNAME=/dev/bus/usb/001/012
DEVNUM=012
DEVPATH=/devices/platform/soc/3f980000.usb/usb1/1-1/1-1.2
DEVTYPE=usb_device
ID_BUS=usb
ID_MODEL=usb_gamepad
ID_MODEL_ENC=usb\x20gamepad\x20\x20\x20\x20\x20\x20\x20\x20\x20\x20\x20
ID_MODEL_ID=e501
ID_REVISION=0106
ID_SERIAL=0810_usb_gamepad
ID_USB_INTERFACES=:030000:
ID_VENDOR=0810
ID_VENDOR_ENC=0810
ID_VENDOR_FROM_DATABASE=Personal Communication Systems, Inc.
ID_VENDOR_ID=0810
MAJOR=189
MINOR=11
PRODUCT=810/e501/106
SEQNUM=1164
SUBSYSTEM=usb
TYPE=0/0/0
USEC_INITIALIZED=87806062

UDEV  [1087.842011] add      /devices/platform/soc/3f980000.usb/usb1/1-1/1-1.2/1-1.2:1.0 (usb)
ACTION=add
DEVPATH=/devices/platform/soc/3f980000.usb/usb1/1-1/1-1.2/1-1.2:1.0
DEVTYPE=usb_interface
ID_VENDOR_FROM_DATABASE=Personal Communication Systems, Inc.
INTERFACE=3/0/0
MODALIAS=usb:v0810pE501d0106dc00dsc00dp00ic03isc00ip00in00
PRODUCT=810/e501/106
SEQNUM=1165
SUBSYSTEM=usb
TYPE=0/0/0
USEC_INITIALIZED=808513

