<?xml version="1.0" encoding="UTF-8" standalone="no"?>
<!-- Created with Inkscape (http://www.inkscape.org/) -->

<svg
   xmlns:dc="http://purl.org/dc/elements/1.1/"
   xmlns:cc="http://creativecommons.org/ns#"
   xmlns:rdf="http://www.w3.org/1999/02/22-rdf-syntax-ns#"
   xmlns:svg="http://www.w3.org/2000/svg"
   xmlns="http://www.w3.org/2000/svg"
   xmlns:sodipodi="http://sodipodi.sourceforge.net/DTD/sodipodi-0.dtd"
   xmlns:inkscape="http://www.inkscape.org/namespaces/inkscape"
   width="75mm"
   height="72mm"
   viewBox="0 0 265.74804 255.11811"
   id="svg2"
   version="1.1"
   inkscape:version="0.91 r13725"
   sodipodi:docname="star_icon_empty.svg">
  <defs
     id="defs4" />
  <sodipodi:namedview
     id="base"
     pagecolor="#ffffff"
     bordercolor="#666666"
     borderopacity="1.0"
     inkscape:pageopacity="0.0"
     inkscape:pageshadow="2"
     inkscape:zoom="3.959798"
     inkscape:cx="146.88146"
     inkscape:cy="131.51208"
     inkscape:document-units="px"
     inkscape:current-layer="layer1"
     showgrid="false"
     inkscape:window-width="2560"
     inkscape:window-height="1377"
     inkscape:window-x="-8"
     inkscape:window-y="-8"
     inkscape:window-maximized="1" />
  <metadata
     id="metadata7">
    <rdf:RDF>
      <cc:Work
         rdf:about="">
        <dc:format>image/svg+xml</dc:format>
        <dc:type
           rdf:resource="http://purl.org/dc/dcmitype/StillImage" />
        <dc:title />
      </cc:Work>
    </rdf:RDF>
  </metadata>
  <g
     inkscape:label="Capa 1"
     inkscape:groupmode="layer"
     id="layer1"
     transform="translate(0,-797.2442)">
    <path
       sodipodi:type="star"
       style="opacity:1;fill:#5a5a5a;fill-opacity:1;stroke:none;stroke-width:30;stroke-linejoin:round;stroke-miterlimit:4;stroke-dasharray:none;stroke-opacity:1"
       id="path4136"
       sodipodi:sides="5"
       sodipodi:cx="256.57874"
       sodipodi:cy="307.87979"
       sodipodi:r1="138.83627"
       sodipodi:r2="69.418137"
       sodipodi:arg1="0.84717512"
       sodipodi:arg2="1.4754937"
       inkscape:flatsided="false"
       inkscape:rounded="0"
       inkscape:randomized="0"
       d="m 348.50262,411.9255 -85.31816,-34.94258 -77.15304,50.47357 6.86762,-91.94024 -71.84482,-57.77971 89.56258,-21.87961 32.75049,-86.18339 48.4851,78.4179 92.08574,4.51544 -59.59714,70.34454 z"
       inkscape:transform-center-x="-0.0069479374"
       inkscape:transform-center-y="-13.251074"
       transform="matrix(0.99544672,0.09531968,-0.09531968,0.99544672,-91.71318,606.26991)" />
  </g>
</svg>
