<?xml version="1.0" encoding="UTF-8" standalone="no"?>
<!-- Created with Inkscape (http://www.inkscape.org/) -->

<svg
   xmlns:dc="http://purl.org/dc/elements/1.1/"
   xmlns:cc="http://creativecommons.org/ns#"
   xmlns:rdf="http://www.w3.org/1999/02/22-rdf-syntax-ns#"
   xmlns:svg="http://www.w3.org/2000/svg"
   xmlns="http://www.w3.org/2000/svg"
   xmlns:sodipodi="http://sodipodi.sourceforge.net/DTD/sodipodi-0.dtd"
   xmlns:inkscape="http://www.inkscape.org/namespaces/inkscape"
   width="210mm"
   height="54mm"
   viewBox="0 0 744.09449 191.33859"
   id="svg7714"
   version="1.1"
   inkscape:version="0.91 r13725"
   sodipodi:docname="spin_box_title.svg">
  <defs
     id="defs7716" />
  <sodipodi:namedview
     id="base"
     pagecolor="#ffffff"
     bordercolor="#666666"
     borderopacity="1.0"
     inkscape:pageopacity="0.0"
     inkscape:pageshadow="2"
     inkscape:zoom="1.4"
     inkscape:cx="305.76154"
     inkscape:cy="171.71722"
     inkscape:document-units="px"
     inkscape:current-layer="layer1"
     showgrid="false"
     inkscape:window-width="2560"
     inkscape:window-height="1377"
     inkscape:window-x="-8"
     inkscape:window-y="-8"
     inkscape:window-maximized="1" />
  <metadata
     id="metadata7719">
    <rdf:RDF>
      <cc:Work
         rdf:about="">
        <dc:format>image/svg+xml</dc:format>
        <dc:type
           rdf:resource="http://purl.org/dc/dcmitype/StillImage" />
        <dc:title></dc:title>
      </cc:Work>
    </rdf:RDF>
  </metadata>
  <g
     inkscape:label="Capa 1"
     inkscape:groupmode="layer"
     id="layer1"
     transform="translate(0,-861.02361)">
    <text
       xml:space="preserve"
       style="font-style:normal;font-weight:normal;font-size:178.86462402px;line-height:125%;font-family:sans-serif;letter-spacing:0px;word-spacing:0px;fill:#ebcf8e;fill-opacity:1;stroke:none;stroke-width:1px;stroke-linecap:butt;stroke-linejoin:miter;stroke-opacity:1"
       x="-2.8680415"
       y="1004.53"
       id="text4966-4"
       sodipodi:linespacing="125%"><tspan
         sodipodi:role="line"
         id="tspan4968-0"
         x="-2.8680415"
         y="1004.53"
         style="font-style:normal;font-variant:normal;font-weight:normal;font-stretch:normal;font-family:'Bulletto Killa¬';-inkscape-font-specification:'Bulletto Killa¬';fill:#ebcf8e;fill-opacity:1"><tspan
           style="fill:#fe495a;fill-opacity:1"
           id="tspan4493-7">S</tspan><tspan
           style="fill:#fb9e37;fill-opacity:1"
           id="tspan4499-9">p</tspan><tspan
           style="fill:#e8d84d;fill-opacity:1"
           id="tspan4501-3">i</tspan><tspan
           style="fill:#bed164;fill-opacity:1"
           id="tspan4503-2">n</tspan><tspan
           style="fill:#189a99;fill-opacity:1"
           id="tspan4505-3"> b</tspan><tspan
           style="fill:#246f91;fill-opacity:1"
           id="tspan4507-9">o</tspan><tspan
           style="fill:#523563;fill-opacity:1"
           id="tspan4509-8">X</tspan></tspan></text>
    <text
       xml:space="preserve"
       style="font-style:normal;font-weight:normal;font-size:176.14379883px;line-height:125%;font-family:sans-serif;letter-spacing:0px;word-spacing:0px;fill:#57555e;fill-opacity:0.26033062;stroke:none;stroke-width:1px;stroke-linecap:butt;stroke-linejoin:miter;stroke-opacity:1"
       x="-0.71268511"
       y="1024.6079"
       id="text4966"
       sodipodi:linespacing="125%"
       transform="scale(1.0154466,0.98478836)"><tspan
         sodipodi:role="line"
         id="tspan4968"
         x="-0.71268511"
         y="1024.6079"
         style="font-style:normal;font-variant:normal;font-weight:normal;font-stretch:normal;font-family:'Bulletto Killa¬';-inkscape-font-specification:'Bulletto Killa¬';fill:#57555e;fill-opacity:0.26033062"><tspan
           style="fill:#57555e;fill-opacity:0.26033062"
           id="tspan4493">S</tspan><tspan
           style="fill:#57555e;fill-opacity:0.26033062"
           id="tspan4499">p</tspan><tspan
           style="fill:#57555e;fill-opacity:0.26033062"
           id="tspan4501">i</tspan><tspan
           style="fill:#57555e;fill-opacity:0.26033062"
           id="tspan4503">n</tspan><tspan
           style="fill:#57555e;fill-opacity:0.26033062"
           id="tspan4505"> b</tspan><tspan
           style="fill:#57555e;fill-opacity:0.26033062"
           id="tspan4507">o</tspan><tspan
           style="fill:#57555e;fill-opacity:0.26033062"
           id="tspan4509">X</tspan></tspan></text>
  </g>
</svg>
