{"_id":{"$oid":"57e188b8afa61d4875a92316"},"name":"Google","image":"","top":1.0,"id":"google","icon":"images/web/google_rect.png","fontSize":"1.8","type":"web","action":"https://www.google.com"}
{"_id":{"$oid":"57e188c6afa61d4875a92317"},"name":"Youtube","image":"","top":1.0,"id":"youtube","icon":"images/web/youtube_rect_2.png","fontSize":"1.5","type":"web","action":"http://www.youtube.com"}
{"_id":{"$oid":"57e188d0afa61d4875a92318"},"name":"Netflix","image":"","top":1.0,"id":"netflix","icon":"images/web/netflix_rect_2.png","fontSize":"1.8","type":"web","action":"http://www.netflix.com"}
